cust_id,record_id,commute,distance,elapsed_time,kilojoules,moving_time,name,start_date_local,start_date_local_tms
99177,1,TRUE,10380.4,2589,170.8,2358,Morning Ride,2018-12-17 09:12:11,17/12/2018 09:12
99177,2,TRUE,9417.4,2110,137.2,2064,Afternoon Ride,2018-12-14 16:39:01,14/12/2018 16:39
99177,3,TRUE,9519.9,2620,139.2,2310,Evening Ride,2018-12-13 18:13:20,13/12/2018 18:13
99177,4,FALSE,10317.6,2311,172,2160,Morning Ride,2018-12-13 18:13:20,13/12/2018 18:13
99177,5,TRUE,7848.2,1722,123.6,1549,Evening Ride,2018-12-12 18:04:37,12/12/2018 18:04
99177,6,FALSE,10357.9,2571,165.9,2264,Evening Ride,2018-12-11 18:21:35,11/12/2018 18:21
99182,1,TRUE,10204.3,2179,180.9,1978,Morning Ride,2018-12-11 08:57:17,11/12/2018 08:57
99182,2,TRUE,10416.2,2352,166.5,2096,Evening Ride,2018-12-10 18:24:07,10/12/2018 18:24
99182,3,TRUE,10368.3,2460,171.8,2207,Morning Ride,2018-12-10 08:59:37,10/12/2018 08:59
99182,4,TRUE,9768.1,2926,142.5,2526,Evening Ride,2018-12-06 18:04:00,06/12/2018 18:04
99182,5,TRUE,10358.8,2670,175,2158,Morning Ride,2018-12-06 08:53:30,06/12/2018 08:53
99182,6,TRUE,10181.7,2376,159.9,1946,Evening Ride,2018-12-03 19:22:27,03/12/2018 19:22
99190,1,TRUE,10330.6,2332,180.2,2140,Morning Ride,2018-12-03 08:53:42,03/12/2018 08:53
99190,2,TRUE,7239.7,1980,98,1643,Evening Ride,2018-11-26 18:18:28,26/11/2018 18:18
99190,3,TRUE,9912.3,2299,162.1,2105,Morning Ride,2018-11-26 09:05:12,26/11/2018 09:05
99190,4,TRUE,9838.6,2882,138.7,2479,Afternoon Ride,2018-11-22 17:59:45,22/11/2018 17:59
99190,5,TRUE,10442,2349,182.3,2164,Morning Ride,2018-11-22 09:17:00,22/11/2018 09:17
99190,6,TRUE,10777.5,3322,157.6,2630,Evening Ride,2018-12-17 18:13:13,17/12/2018 18:13
